{
    "prod": {
        "atl": {
            "ds-carrier1": {
                "username": "weblogic",
                "conf_file": "/home/weblogic/applications.ALL",
                "server_type": "carrier_api"
            },
            "ds-carrier2": {
                "username": "weblogic",
                "conf_file": "/home/weblogic/applications.ALL",
                "server_type": "carrier_api"
            },
            "ds-integration1": {
                "username": "weblogic",
                "conf_file": "/home/weblogic/applications.ALL",
                "server_type": "integration"
            },
            "ds-integration2": {
                "username": "weblogic",
                "conf_file": "/home/weblogic/applications.ALL",
                "server_type": "integration"
            },
            "ds-integration3": {
                "username": "weblogic",
                "conf_file": "/home/weblogic/applications.ALL",
                "server_type": "integration"
            },
            "ds-smpp01": {
                "username": "weblogic",
                "conf_file": "/home/weblogic/applications.ALL",
                "server_type": "binds"
            },
            "ds-smpp02": {
                "username": "weblogic",
                "conf_file": "/home/weblogic/applications.ALL",
                "server_type": "binds"
            },
            "ds-paysf1": {
                "username": "weblogic",
                "conf_file": "/home/weblogic/applications.ALL",
                "server_type": "pay_sf"
            },
            "ds-paysf2": {
                "username": "weblogic",
                "conf_file": "/home/weblogic/applications.ALL",
                "server_type": "pay_sf"
            },
            "ds-paysf3": {
                "username": "weblogic",
                "conf_file": "/home/weblogic/applications.ALL",
                "server_type": "pay_sf"
            },
            "ds-paysf4": {
                "username": "weblogic",
                "conf_file": "/home/weblogic/applications.ALL",
                "server_type": "pay_sf"
            },
            "ds-paysf5": {
                "username": "weblogic",
                "conf_file": "/home/weblogic/applications.ALL",
                "server_type": "pay_sf"
            },
            "ds-paysf6": {
                "username": "weblogic",
                "conf_file": "/home/weblogic/applications.ALL",
                "server_type": "pay_sf"
            }
        },
        "mia": {
            "dp-carrier1": {
                "username": "weblogic",
                "conf_file": "/home/weblogic/applications.ALL",
                "server_type": "carrier_api"
            },
            "dp-carrier2": {
                "username": "weblogic",
                "conf_file": "/home/weblogic/applications.ALL",
                "server_type": "carrier_api"
            },
            "dp-integration1": {
                "username": "weblogic",
                "conf_file": "/home/weblogic/applications.ALL",
                "server_type": "integration"
            },
            "dp-integration2": {
                "username": "weblogic",
                "conf_file": "/home/weblogic/applications.ALL",
                "server_type": "integration"
            },
            "dp-integration3": {
                "username": "weblogic",
                "conf_file": "/home/weblogic/applications.ALL",
                "server_type": "integration"
            },
            "dp-smpp01": {
                "username": "weblogic",
                "conf_file": "/home/weblogic/applications.ALL",
                "server_type": "binds"
            },
            "dp-smpp02": {
                "username": "weblogic",
                "conf_file": "/home/weblogic/applications.ALL",
                "server_type": "binds"
            },
            "dp-paysf1": {
                "username": "weblogic",
                "conf_file": "/home/weblogic/applications.ALL",
                "server_type": "pay_sf"
            },
            "dp-paysf2": {
                "username": "weblogic",
                "conf_file": "/home/weblogic/applications.ALL",
                "server_type": "pay_sf"
            },
            "dp-paysf3": {
                "username": "weblogic",
                "conf_file": "/home/weblogic/applications.ALL",
                "server_type": "pay_sf"
            },
            "dp-paysf4": {
                "username": "weblogic",
                "conf_file": "/home/weblogic/applications.ALL",
                "server_type": "pay_sf"
            },
            "dp-paysf5": {
                "username": "weblogic",
                "conf_file": "/home/weblogic/applications.ALL",
                "server_type": "pay_sf"
            },
            "dp-paysf6": {
                "username": "weblogic",
                "conf_file": "/home/weblogic/applications.ALL",
                "server_type": "pay_sf"
            }
        }
    },
    "tst": {
        "dp-tstintegration1": {
            "username": "weblogic",
            "conf_file": "/home/weblogic/applications.ALL",
            "server_type": "integration"
        },
        "dp-tstintegration2": {
            "username": "weblogic",
            "conf_file": "/home/weblogic/applications.ALL",
            "server_type": "integration"
        },
        "dp-tstsmpp1": {
            "username": "weblogic",
            "conf_file": "/home/weblogic/applications.ALL",
            "server_type": "carrier_api"
        },
        "dp-tstbilladmin1": {
            "username": "weblogic",
            "conf_file": "/home/weblogic/applications.ALL",
            "server_type": "billing"
        }
    },
    "sit": {}
}